EESchema Schematic File Version 4
EELAYER 26 0
EELAYER END
$Descr A3 16535 11693
encoding utf-8
Sheet 1 1
Title "Larva.io Ctrl Testing System"
Date "2019-07-31"
Rev "1.1"
Comp "Larva.io"
Comment1 "Design: Hannes Tarien"
Comment2 ""
Comment3 ""
Comment4 ""
$EndDescr
Text Label 10650 1900 0    39   ~ 0
Z0
Text Label 10650 2300 0    39   ~ 0
Z1
Text Label 11300 1900 0    39   ~ 0
Z2
Text Label 11300 2300 0    39   ~ 0
Z3
Text Label 11950 1900 0    39   ~ 0
Z4
Text Label 11950 2300 0    39   ~ 0
Z5
Text Label 12600 1900 0    39   ~ 0
Z6
$Comp
L Connector:Conn_01x08_Female T18
U 1 1 5D334151
P 10750 2200
F 0 "T18" H 10778 2176 50  0000 L CNN
F 1 "KL2602" H 10778 2085 50  0000 L CNN
F 2 "" H 10750 2200 50  0001 C CNN
F 3 "~" H 10750 2200 50  0001 C CNN
	1    10750 2200
	1    0    0    -1  
$EndComp
$Comp
L Connector:Conn_01x08_Female T19
U 1 1 5D334158
P 11400 2200
F 0 "T19" H 11428 2176 50  0000 L CNN
F 1 "KL2602" H 11428 2085 50  0000 L CNN
F 2 "" H 11400 2200 50  0001 C CNN
F 3 "~" H 11400 2200 50  0001 C CNN
	1    11400 2200
	1    0    0    -1  
$EndComp
$Comp
L Connector:Conn_01x08_Female T20
U 1 1 5D33415F
P 12050 2200
F 0 "T20" H 12078 2176 50  0000 L CNN
F 1 "KL2602" H 12078 2085 50  0000 L CNN
F 2 "" H 12050 2200 50  0001 C CNN
F 3 "~" H 12050 2200 50  0001 C CNN
	1    12050 2200
	1    0    0    -1  
$EndComp
$Comp
L Connector:Conn_01x08_Female T21
U 1 1 5D334166
P 12700 2200
F 0 "T21" H 12728 2176 50  0000 L CNN
F 1 "KL2602" H 12728 2085 50  0000 L CNN
F 2 "" H 12700 2200 50  0001 C CNN
F 3 "~" H 12700 2200 50  0001 C CNN
	1    12700 2200
	1    0    0    -1  
$EndComp
$Comp
L Connector:Conn_01x08_Female T15
U 1 1 5D33417C
P 8000 2200
AR Path="/5D33417C" Ref="T15"  Part="1" 
AR Path="/5D33320F/5D33417C" Ref="T15"  Part="1" 
F 0 "T15" H 8028 2176 50  0000 L CNN
F 1 "KL9080" H 8028 2085 50  0000 L CNN
F 2 "" H 8000 2200 50  0001 C CNN
F 3 "~" H 8000 2200 50  0001 C CNN
	1    8000 2200
	1    0    0    -1  
$EndComp
$Comp
L Device:R R1
U 1 1 5D334183
P 9450 1550
AR Path="/5D334183" Ref="R1"  Part="1" 
AR Path="/5D33320F/5D334183" Ref="R2"  Part="1" 
F 0 "R1" H 9520 1596 50  0000 L CNN
F 1 "2k2" H 9520 1505 50  0000 L CNN
F 2 "" V 9380 1550 50  0001 C CNN
F 3 "~" H 9450 1550 50  0001 C CNN
	1    9450 1550
	1    0    0    -1  
$EndComp
$Comp
L Device:R R2
U 1 1 5D33418A
P 9850 1550
AR Path="/5D33418A" Ref="R2"  Part="1" 
AR Path="/5D33320F/5D33418A" Ref="R3"  Part="1" 
F 0 "R2" H 9920 1596 50  0000 L CNN
F 1 "2k2" H 9920 1505 50  0000 L CNN
F 2 "" V 9780 1550 50  0001 C CNN
F 3 "~" H 9850 1550 50  0001 C CNN
	1    9850 1550
	1    0    0    -1  
$EndComp
Text Label 12600 2100 0    39   ~ 0
ZGND
$Comp
L Connector:Conn_01x08_Female T17
U 1 1 5D334E4D
P 10100 2200
F 0 "T17" H 10128 2176 50  0000 L CNN
F 1 "KL2794" H 10128 2085 50  0000 L CNN
F 2 "" H 10100 2200 50  0001 C CNN
F 3 "~" H 10100 2200 50  0001 C CNN
	1    10100 2200
	1    0    0    -1  
$EndComp
Wire Notes Line rgb(194, 0, 0)
	12500 2000 12450 2000
Wire Notes Line rgb(194, 0, 0)
	12450 2400 12500 2400
Wire Notes Line
	12500 2100 12400 2100
Wire Notes Line
	12400 2500 12500 2500
Wire Notes Line rgb(194, 0, 0)
	11850 2000 11800 2000
Wire Notes Line rgb(194, 0, 0)
	11800 2000 11800 2400
Wire Notes Line rgb(194, 0, 0)
	11800 2400 11850 2400
Wire Notes Line
	11850 2100 11750 2100
Wire Notes Line
	11750 2500 11850 2500
Wire Notes Line rgb(194, 0, 0)
	11200 2000 11150 2000
Wire Notes Line rgb(194, 0, 0)
	11150 2000 11150 2400
Wire Notes Line rgb(194, 0, 0)
	11150 2400 11200 2400
Wire Notes Line
	11200 2100 11100 2100
Wire Notes Line
	11100 2500 11200 2500
Wire Notes Line rgb(194, 0, 0)
	10550 2000 10500 2000
Wire Notes Line rgb(194, 0, 0)
	10500 2400 10550 2400
Wire Notes Line
	10550 2100 10450 2100
Wire Notes Line
	10450 2500 10550 2500
Wire Wire Line
	9900 1900 9850 1900
Wire Wire Line
	9850 1900 9850 1700
Wire Wire Line
	9900 2300 9550 2300
Wire Wire Line
	9850 1400 9850 1350
Wire Wire Line
	9850 1350 10250 1350
Wire Wire Line
	10250 1350 10250 2500
Wire Wire Line
	9450 1400 9450 1200
Wire Wire Line
	10350 1200 10350 2100
Wire Wire Line
	9900 2000 9750 2000
Wire Wire Line
	9750 2000 9750 1800
Wire Wire Line
	9750 1800 10400 1800
Wire Wire Line
	10400 1800 10400 2000
Wire Wire Line
	9900 2400 9750 2400
Wire Wire Line
	9750 2400 9750 2700
Wire Wire Line
	9750 2700 10400 2700
Wire Wire Line
	10400 2700 10400 2400
Wire Notes Line rgb(194, 0, 0)
	12450 2000 12450 2700
Wire Notes Line rgb(194, 0, 0)
	12450 2700 10500 2700
Wire Notes Line rgb(194, 0, 0)
	10500 2000 10500 2700
Wire Notes Line
	12400 2100 12400 2800
Wire Notes Line
	11750 2100 11750 2800
Wire Notes Line
	11100 2100 11100 2800
Wire Notes Line
	10450 2100 10450 2800
Wire Notes Line
	10450 2800 12400 2800
Wire Wire Line
	9900 2100 9650 2100
Wire Wire Line
	9650 2100 9650 1100
Wire Wire Line
	9650 1100 11000 1100
Wire Wire Line
	9900 2200 9650 2200
$Comp
L Connector:Conn_01x08_Female T22
U 1 1 5D317F85
P 13250 2200
AR Path="/5D317F85" Ref="T22"  Part="1" 
AR Path="/5D33320F/5D317F85" Ref="EndTerm"  Part="1" 
F 0 "T22" H 13278 2176 50  0000 L CNN
F 1 "KL9010" H 13278 2085 50  0000 L CNN
F 2 "" H 13250 2200 50  0001 C CNN
F 3 "~" H 13250 2200 50  0001 C CNN
	1    13250 2200
	1    0    0    -1  
$EndComp
Wire Wire Line
	11000 2000 11200 2000
Wire Wire Line
	11000 2500 11200 2500
Wire Wire Line
	11000 2900 11000 2500
Wire Wire Line
	10400 2400 10550 2400
Wire Wire Line
	10250 2500 10550 2500
Wire Wire Line
	10350 2100 10550 2100
Wire Wire Line
	10400 2000 10550 2000
Wire Wire Line
	11000 1100 11000 2000
Text Label 12200 4200 0    39   ~ 0
AI0
Text Label 12200 4600 0    39   ~ 0
AI1
Text Label 12850 4200 0    39   ~ 0
AI2
$Comp
L Connector:Conn_01x08_Female T12
U 1 1 5D31E2E7
P 11650 4500
F 0 "T12" H 11678 4476 50  0000 L CNN
F 1 "KL2602" H 11678 4385 50  0000 L CNN
F 2 "" H 11650 4500 50  0001 C CNN
F 3 "~" H 11650 4500 50  0001 C CNN
	1    11650 4500
	1    0    0    -1  
$EndComp
$Comp
L Connector:Conn_01x08_Female T13
U 1 1 5D31E2F5
P 12300 4500
F 0 "T13" H 12328 4476 50  0000 L CNN
F 1 "KL2602" H 12328 4385 50  0000 L CNN
F 2 "" H 12300 4500 50  0001 C CNN
F 3 "~" H 12300 4500 50  0001 C CNN
	1    12300 4500
	1    0    0    -1  
$EndComp
$Comp
L Connector:Conn_01x08_Female T14
U 1 1 5D31E2FC
P 12950 4500
F 0 "T14" H 12978 4476 50  0000 L CNN
F 1 "KL2602" H 12978 4385 50  0000 L CNN
F 2 "" H 12950 4500 50  0001 C CNN
F 3 "~" H 12950 4500 50  0001 C CNN
	1    12950 4500
	1    0    0    -1  
$EndComp
Text Label 12850 4600 0    39   ~ 0
AI3
Wire Notes Line rgb(194, 0, 0)
	12750 4300 12700 4300
Wire Notes Line rgb(194, 0, 0)
	12700 4700 12750 4700
Wire Notes Line
	12750 4400 12650 4400
Wire Notes Line
	12650 4800 12750 4800
Wire Notes Line rgb(194, 0, 0)
	12100 4300 12050 4300
Wire Notes Line rgb(194, 0, 0)
	12050 4300 12050 4700
Wire Notes Line rgb(194, 0, 0)
	12050 4700 12100 4700
Wire Notes Line
	12100 4400 12000 4400
Wire Notes Line
	12000 4800 12100 4800
Wire Notes Line rgb(194, 0, 0)
	11450 4300 11400 4300
Wire Notes Line rgb(194, 0, 0)
	11400 4700 11450 4700
Wire Notes Line
	11450 4400 11350 4400
Wire Notes Line
	11350 4800 11450 4800
Wire Notes Line rgb(194, 0, 0)
	12700 4300 12700 5000
Wire Notes Line rgb(194, 0, 0)
	12700 5000 11400 5000
Wire Notes Line rgb(194, 0, 0)
	11400 4300 11400 5000
Wire Notes Line
	12650 4400 12650 5100
Wire Notes Line
	12000 4400 12000 5100
Wire Notes Line
	11350 4400 11350 5100
Wire Notes Line
	11350 5100 12650 5100
Wire Notes Line style dotted rgb(0, 0, 0)
	7750 950  7750 3100
Wire Notes Line style dotted rgb(0, 0, 0)
	7750 3100 13600 3100
Wire Notes Line style dotted rgb(0, 0, 0)
	13600 3100 13600 950 
Text Notes 12250 1450 0    50   ~ 0
Zone\n
Wire Notes Line style dotted rgb(0, 0, 0)
	7750 3350 7750 5500
Wire Notes Line style dotted rgb(0, 0, 0)
	7750 5500 13450 5500
Wire Notes Line style dotted rgb(0, 0, 0)
	13450 3350 7750 3350
Wire Notes Line style dotted rgb(0, 0, 0)
	13450 3350 13450 5500
Text Notes 12000 3600 0    50   ~ 0
Analog
$Comp
L Connector:Conn_01x08_Female T9
U 1 1 5D335668
P 9800 4500
AR Path="/5D335668" Ref="T9"  Part="1" 
AR Path="/5D33320F/5D335668" Ref="T9"  Part="1" 
F 0 "T9" H 9828 4476 50  0000 L CNN
F 1 "KL4414" H 9828 4385 50  0000 L CNN
F 2 "" H 9800 4500 50  0001 C CNN
F 3 "~" H 9800 4500 50  0001 C CNN
	1    9800 4500
	1    0    0    -1  
$EndComp
$Comp
L Connector:Conn_01x08_Female T8
U 1 1 5D335AA2
P 9150 4500
AR Path="/5D335AA2" Ref="T8"  Part="1" 
AR Path="/5D33320F/5D335AA2" Ref="T8"  Part="1" 
F 0 "T8" H 9178 4476 50  0000 L CNN
F 1 "KL4404" H 9178 4385 50  0000 L CNN
F 2 "" H 9150 4500 50  0001 C CNN
F 3 "~" H 9150 4500 50  0001 C CNN
	1    9150 4500
	1    0    0    -1  
$EndComp
Wire Wire Line
	8950 4200 8750 4200
Wire Wire Line
	8750 4200 8750 3950
Wire Wire Line
	8750 3950 11250 3950
Wire Wire Line
	11250 3950 11250 4200
Wire Wire Line
	11250 4200 11450 4200
Wire Wire Line
	9600 4200 9500 4200
Wire Wire Line
	9500 4200 9500 4100
Wire Wire Line
	9500 4100 11150 4100
$Comp
L Connector:Conn_01x08_Female T11
U 1 1 5D346D97
P 11000 4500
AR Path="/5D346D97" Ref="T11"  Part="1" 
AR Path="/5D33320F/5D346D97" Ref="T10"  Part="1" 
F 0 "T11" H 11028 4476 50  0000 L CNN
F 1 "KL9100" H 11028 4385 50  0000 L CNN
F 2 "" H 11000 4500 50  0001 C CNN
F 3 "~" H 11000 4500 50  0001 C CNN
	1    11000 4500
	1    0    0    -1  
$EndComp
Wire Wire Line
	11450 4600 11150 4600
Wire Wire Line
	11150 4600 11150 4100
Wire Wire Line
	11450 4800 11150 4800
Wire Wire Line
	11150 4800 11150 5100
Wire Wire Line
	11150 5100 9500 5100
Wire Wire Line
	9500 5100 9500 4900
Text Label 12850 4400 0    39   ~ 0
ioGND
Text Label 4750 4150 0    39   ~ 0
DO0.1
$Comp
L Connector:Conn_01x08_Female T4
U 1 1 5D31BCFB
P 4850 4450
F 0 "T4" H 4878 4426 50  0000 L CNN
F 1 "KL1362" H 4878 4335 50  0000 L CNN
F 2 "" H 4850 4450 50  0001 C CNN
F 3 "~" H 4850 4450 50  0001 C CNN
	1    4850 4450
	1    0    0    -1  
$EndComp
$Comp
L Connector:Conn_01x08_Female T5
U 1 1 5D31BD02
P 5500 4450
F 0 "T5" H 5528 4426 50  0000 L CNN
F 1 "KL1362" H 5528 4335 50  0000 L CNN
F 2 "" H 5500 4450 50  0001 C CNN
F 3 "~" H 5500 4450 50  0001 C CNN
	1    5500 4450
	1    0    0    -1  
$EndComp
Wire Notes Line rgb(194, 0, 0)
	5300 4250 5250 4250
Wire Notes Line rgb(194, 0, 0)
	5250 4650 5300 4650
Wire Notes Line
	5300 4350 5200 4350
Wire Notes Line
	5200 4750 5300 4750
Wire Notes Line rgb(194, 0, 0)
	4650 4250 4600 4250
Wire Notes Line rgb(194, 0, 0)
	4600 4650 4650 4650
Wire Notes Line
	4650 4350 4550 4350
Wire Notes Line
	4550 4750 4650 4750
Wire Notes Line rgb(194, 0, 0)
	4600 4250 4600 4950
Wire Notes Line
	5200 4350 5200 5050
Wire Notes Line
	4550 4350 4550 5050
Wire Notes Line style dotted rgb(0, 0, 0)
	1600 3300 1600 5450
Wire Notes Line style dotted rgb(0, 0, 0)
	1600 5450 7300 5450
Wire Notes Line style dotted rgb(0, 0, 0)
	7300 3300 1600 3300
Wire Notes Line style dotted rgb(0, 0, 0)
	7300 3300 7300 5450
Text Notes 3450 3550 0    50   ~ 0
Digital Out
Wire Wire Line
	5300 4150 5250 4150
$Comp
L Connector:Conn_01x08_Female T6
U 1 1 5D3F61D9
P 4850 6950
F 0 "T6" H 4878 6926 50  0000 L CNN
F 1 "KL1414" H 4878 6835 50  0000 L CNN
F 2 "" H 4850 6950 50  0001 C CNN
F 3 "~" H 4850 6950 50  0001 C CNN
	1    4850 6950
	1    0    0    -1  
$EndComp
$Comp
L Connector:Conn_01x08_Female T7
U 1 1 5D3F61E0
P 5500 6950
F 0 "T7" H 5528 6926 50  0000 L CNN
F 1 "KL1414" H 5528 6835 50  0000 L CNN
F 2 "" H 5500 6950 50  0001 C CNN
F 3 "~" H 5500 6950 50  0001 C CNN
	1    5500 6950
	1    0    0    -1  
$EndComp
Wire Notes Line rgb(194, 0, 0)
	5300 6750 5250 6750
Wire Notes Line rgb(194, 0, 0)
	5250 7150 5300 7150
Wire Notes Line rgb(194, 0, 0)
	4650 6750 4600 6750
Wire Notes Line rgb(194, 0, 0)
	4600 7150 4650 7150
Wire Notes Line rgb(194, 0, 0)
	4600 6750 4600 7450
Wire Notes Line style dotted rgb(0, 0, 0)
	1600 5800 1600 7950
Wire Notes Line style dotted rgb(0, 0, 0)
	1600 7950 7300 7950
Wire Notes Line style dotted rgb(0, 0, 0)
	7300 5800 1600 5800
Wire Notes Line style dotted rgb(0, 0, 0)
	7300 5800 7300 7950
Text Notes 3600 6100 0    50   ~ 0
Relay Out
Wire Wire Line
	5300 6650 5250 6650
Text Label 6050 2200 0    39   ~ 0
DI5
Text Label 6050 2100 0    39   ~ 0
DI6
$Comp
L Connector:Conn_01x08_Female Beckhoff
U 1 1 5D3FD15A
P 4850 2100
F 0 "Beckhoff" H 4878 2076 50  0000 L CNN
F 1 "CX9020" H 4878 1985 50  0000 L CNN
F 2 "" H 4850 2100 50  0001 C CNN
F 3 "~" H 4850 2100 50  0001 C CNN
	1    4850 2100
	1    0    0    -1  
$EndComp
$Comp
L Connector:Conn_01x08_Female T2
U 1 1 5D3FD161
P 5500 2100
F 0 "T2" H 5528 2076 50  0000 L CNN
F 1 "KL2184" H 5528 1985 50  0000 L CNN
F 2 "" H 5500 2100 50  0001 C CNN
F 3 "~" H 5500 2100 50  0001 C CNN
	1    5500 2100
	1    0    0    -1  
$EndComp
$Comp
L Connector:Conn_01x08_Female T3
U 1 1 5D3FD168
P 6150 2100
F 0 "T3" H 6178 2076 50  0000 L CNN
F 1 "KL2184" H 6178 1985 50  0000 L CNN
F 2 "" H 6150 2100 50  0001 C CNN
F 3 "~" H 6150 2100 50  0001 C CNN
	1    6150 2100
	1    0    0    -1  
$EndComp
Wire Notes Line rgb(194, 0, 0)
	5950 1900 5900 1900
Wire Notes Line rgb(194, 0, 0)
	5900 2300 5950 2300
Wire Notes Line
	5950 2000 5850 2000
Wire Notes Line
	5850 2400 5950 2400
Wire Notes Line rgb(194, 0, 0)
	5300 1900 5250 1900
Wire Notes Line rgb(194, 0, 0)
	5250 2300 5300 2300
Wire Notes Line
	5300 2000 5200 2000
Wire Notes Line
	5200 2400 5300 2400
Wire Notes Line
	4650 2000 4550 2000
Wire Notes Line
	4550 2400 4650 2400
Wire Notes Line
	5850 2000 5850 2700
Wire Notes Line
	5200 2000 5200 2700
Wire Notes Line
	4550 2000 4550 2700
Wire Notes Line style dotted rgb(0, 0, 0)
	1600 950  1600 3100
Wire Notes Line style dotted rgb(0, 0, 0)
	1600 3100 7300 3100
Wire Notes Line style dotted rgb(0, 0, 0)
	7300 950  1600 950 
Wire Notes Line style dotted rgb(0, 0, 0)
	7300 950  7300 3100
Text Notes 3450 1100 0    50   ~ 0
Digital In
Wire Wire Line
	5300 1800 5250 1800
Text Label 5400 1800 0    39   ~ 0
DI0
Text Label 5400 2200 0    39   ~ 0
DI1
Text Label 5400 2100 0    39   ~ 0
DI2
Text Label 5400 2500 0    39   ~ 0
DI3
Text Label 6050 2500 0    39   ~ 0
DI7
Text Label 6050 1800 0    39   ~ 0
DI4
Wire Notes Line rgb(194, 0, 0)
	5900 1900 5900 2600
Wire Notes Line rgb(194, 0, 0)
	4600 2600 5900 2600
Wire Notes Line rgb(194, 0, 0)
	4600 2600 4600 1900
Wire Notes Line rgb(194, 0, 0)
	4600 1900 4650 1900
Wire Notes Line rgb(194, 0, 0)
	4650 2300 4600 2300
Wire Notes Line rgb(194, 0, 0)
	5250 1900 5250 2600
Wire Notes Line
	4550 2700 5850 2700
Text Label 4750 4450 0    39   ~ 0
DO0.2
Text Label 4750 4850 0    39   ~ 0
DO1.2
Text Label 4750 4550 0    39   ~ 0
DO1.1
Text Label 5400 4150 0    39   ~ 0
DO2.1
Text Label 5400 4450 0    39   ~ 0
DO2.2
Text Label 5400 4550 0    39   ~ 0
DO3.1
Text Label 5400 4850 0    39   ~ 0
DO3.2
Wire Notes Line
	4550 5050 5200 5050
Wire Notes Line rgb(194, 0, 0)
	4600 4950 5250 4950
Wire Notes Line rgb(194, 0, 0)
	5250 4250 5250 4950
Wire Notes Line rgb(194, 0, 0)
	5300 6850 5250 6850
Wire Notes Line rgb(194, 0, 0)
	5300 7250 5250 7250
Wire Notes Line rgb(194, 0, 0)
	4650 6850 4600 6850
Wire Notes Line rgb(194, 0, 0)
	4650 7250 4600 7250
Wire Notes Line rgb(194, 0, 0)
	5250 7450 4600 7450
Wire Notes Line rgb(194, 0, 0)
	5250 6750 5250 7450
Text Label 4750 6650 0    39   ~ 0
R0NO
Text Label 4750 7050 0    39   ~ 0
R1NO
Text Label 4750 6950 0    39   ~ 0
R2NO
Text Label 4750 7350 0    39   ~ 0
R3NO
Text Label 5400 6650 0    39   ~ 0
R4NO
Text Label 5400 6950 0    39   ~ 0
R6NO
Text Label 5400 7050 0    39   ~ 0
R5NO
Text Label 5400 7350 0    39   ~ 0
R7NO
Text Label 4750 6750 0    39   ~ 0
R01C
Text Label 4750 6850 0    39   ~ 0
R23C
Text Label 5400 6750 0    39   ~ 0
R45C
Text Label 5400 6850 0    39   ~ 0
R67C
$Comp
L Connector:Conn_01x08_Female T16
U 1 1 5D44356D
P 8700 2200
AR Path="/5D44356D" Ref="T16"  Part="1" 
AR Path="/5D33320F/5D44356D" Ref="T16"  Part="1" 
F 0 "T16" H 8728 2176 50  0000 L CNN
F 1 "KL3681" H 8728 2085 50  0000 L CNN
F 2 "" H 8700 2200 50  0001 C CNN
F 3 "~" H 8700 2200 50  0001 C CNN
	1    8700 2200
	1    0    0    -1  
$EndComp
Wire Notes Line style dotted rgb(0, 0, 0)
	7750 950  13600 950 
Wire Notes Line
	8500 2000 8400 2000
Wire Notes Line
	8400 2000 8400 2400
Wire Notes Line
	8400 2400 8500 2400
Wire Notes Line rgb(194, 0, 0)
	8500 1900 8350 1900
Wire Notes Line rgb(194, 0, 0)
	8350 1900 8350 2300
Wire Notes Line rgb(194, 0, 0)
	8350 2300 8500 2300
Text Label 8600 1900 0    39   ~ 0
Bell+
Text Label 8600 2000 0    39   ~ 0
Bell-
Wire Wire Line
	9900 2600 9450 2600
Wire Wire Line
	9450 2600 9450 2950
$Comp
L Device:R R3
U 1 1 5D463F6E
P 8600 2750
AR Path="/5D463F6E" Ref="R3"  Part="1" 
AR Path="/5D33320F/5D463F6E" Ref="R1"  Part="1" 
F 0 "R3" H 8670 2796 50  0000 L CNN
F 1 "1k" H 8670 2705 50  0000 L CNN
F 2 "" V 8530 2750 50  0001 C CNN
F 3 "~" H 8600 2750 50  0001 C CNN
	1    8600 2750
	0    1    1    0   
$EndComp
Wire Wire Line
	8400 2950 8400 2400
Wire Wire Line
	8450 2750 8350 2750
Wire Wire Line
	8350 2750 8350 2300
Wire Wire Line
	9600 4900 9500 4900
$Comp
L Device:R R8
U 1 1 5D42FBF3
P 5350 1350
AR Path="/5D42FBF3" Ref="R8"  Part="1" 
AR Path="/5D33320F/5D42FBF3" Ref="R?"  Part="1" 
F 0 "R8" H 5420 1396 50  0000 L CNN
F 1 "10k" H 5420 1305 50  0000 L CNN
F 2 "" V 5280 1350 50  0001 C CNN
F 3 "~" H 5350 1350 50  0001 C CNN
	1    5350 1350
	-1   0    0    1   
$EndComp
$Comp
L Device:R R9
U 1 1 5D43E05A
P 5600 1350
AR Path="/5D43E05A" Ref="R9"  Part="1" 
AR Path="/5D33320F/5D43E05A" Ref="R?"  Part="1" 
F 0 "R9" H 5670 1396 50  0000 L CNN
F 1 "10k" H 5670 1305 50  0000 L CNN
F 2 "" V 5530 1350 50  0001 C CNN
F 3 "~" H 5600 1350 50  0001 C CNN
	1    5600 1350
	-1   0    0    1   
$EndComp
$Comp
L Device:R R7
U 1 1 5D458FB5
P 5100 1350
AR Path="/5D458FB5" Ref="R7"  Part="1" 
AR Path="/5D33320F/5D458FB5" Ref="R?"  Part="1" 
F 0 "R7" H 5170 1396 50  0000 L CNN
F 1 "10k" H 5170 1305 50  0000 L CNN
F 2 "" V 5030 1350 50  0001 C CNN
F 3 "~" H 5100 1350 50  0001 C CNN
	1    5100 1350
	-1   0    0    1   
$EndComp
$Comp
L Device:R R6
U 1 1 5D459041
P 4850 1350
AR Path="/5D459041" Ref="R6"  Part="1" 
AR Path="/5D33320F/5D459041" Ref="R?"  Part="1" 
F 0 "R6" H 4920 1396 50  0000 L CNN
F 1 "10k" H 4920 1305 50  0000 L CNN
F 2 "" V 4780 1350 50  0001 C CNN
F 3 "~" H 4850 1350 50  0001 C CNN
	1    4850 1350
	-1   0    0    1   
$EndComp
Wire Wire Line
	5250 1800 5250 1700
Wire Wire Line
	5250 1700 4850 1700
Wire Wire Line
	4850 1700 4850 1500
Wire Wire Line
	5300 2200 5100 2200
Wire Wire Line
	5100 2200 5100 1500
Wire Wire Line
	5300 2100 5150 2100
Wire Wire Line
	5150 2100 5150 1650
Wire Wire Line
	5150 1650 5350 1650
Wire Wire Line
	5350 1650 5350 1500
Wire Wire Line
	5300 2500 5050 2500
Wire Wire Line
	5050 2500 5050 1600
Wire Wire Line
	5050 1600 5600 1600
Wire Wire Line
	5600 1600 5600 1500
Wire Wire Line
	4950 1900 4950 1600
Wire Wire Line
	4950 1600 4600 1600
Wire Wire Line
	4600 1600 4600 1100
Wire Wire Line
	4600 1100 4850 1100
Wire Wire Line
	5600 1100 5600 1200
Wire Wire Line
	5350 1200 5350 1100
Connection ~ 5350 1100
Wire Wire Line
	5350 1100 5600 1100
Wire Wire Line
	5100 1200 5100 1100
Connection ~ 5100 1100
Wire Wire Line
	5100 1100 5350 1100
Wire Wire Line
	4850 1200 4850 1100
Connection ~ 4850 1100
Wire Wire Line
	4850 1100 5100 1100
Wire Wire Line
	5300 1900 4950 1900
$Comp
L Device:R R12
U 1 1 5D4CD6A4
P 6500 1350
AR Path="/5D4CD6A4" Ref="R12"  Part="1" 
AR Path="/5D33320F/5D4CD6A4" Ref="R?"  Part="1" 
F 0 "R12" H 6570 1396 50  0000 L CNN
F 1 "10k" H 6570 1305 50  0000 L CNN
F 2 "" V 6430 1350 50  0001 C CNN
F 3 "~" H 6500 1350 50  0001 C CNN
	1    6500 1350
	-1   0    0    1   
$EndComp
$Comp
L Device:R R13
U 1 1 5D4CD6AA
P 6750 1350
AR Path="/5D4CD6AA" Ref="R13"  Part="1" 
AR Path="/5D33320F/5D4CD6AA" Ref="R?"  Part="1" 
F 0 "R13" H 6820 1396 50  0000 L CNN
F 1 "10k" H 6820 1305 50  0000 L CNN
F 2 "" V 6680 1350 50  0001 C CNN
F 3 "~" H 6750 1350 50  0001 C CNN
	1    6750 1350
	-1   0    0    1   
$EndComp
$Comp
L Device:R R11
U 1 1 5D4CD6B0
P 6250 1350
AR Path="/5D4CD6B0" Ref="R11"  Part="1" 
AR Path="/5D33320F/5D4CD6B0" Ref="R?"  Part="1" 
F 0 "R11" H 6320 1396 50  0000 L CNN
F 1 "10k" H 6320 1305 50  0000 L CNN
F 2 "" V 6180 1350 50  0001 C CNN
F 3 "~" H 6250 1350 50  0001 C CNN
	1    6250 1350
	-1   0    0    1   
$EndComp
$Comp
L Device:R R10
U 1 1 5D4CD6B6
P 6000 1350
AR Path="/5D4CD6B6" Ref="R10"  Part="1" 
AR Path="/5D33320F/5D4CD6B6" Ref="R?"  Part="1" 
F 0 "R10" H 6070 1396 50  0000 L CNN
F 1 "10k" H 6070 1305 50  0000 L CNN
F 2 "" V 5930 1350 50  0001 C CNN
F 3 "~" H 6000 1350 50  0001 C CNN
	1    6000 1350
	-1   0    0    1   
$EndComp
Wire Wire Line
	5750 1100 6000 1100
Wire Wire Line
	6750 1100 6750 1200
Wire Wire Line
	6500 1200 6500 1100
Connection ~ 6500 1100
Wire Wire Line
	6500 1100 6750 1100
Wire Wire Line
	6250 1200 6250 1100
Connection ~ 6250 1100
Wire Wire Line
	6250 1100 6500 1100
Wire Wire Line
	6000 1200 6000 1100
Connection ~ 6000 1100
Wire Wire Line
	6000 1100 6250 1100
Wire Wire Line
	5950 1900 5750 1900
Wire Wire Line
	5750 1900 5750 1100
Wire Wire Line
	5950 1800 5950 1650
Wire Wire Line
	5950 1650 6000 1650
Wire Wire Line
	6000 1650 6000 1500
Wire Wire Line
	5950 2200 5800 2200
Wire Wire Line
	5800 2200 5800 1600
Wire Wire Line
	5800 1600 6250 1600
Wire Wire Line
	6250 1600 6250 1500
Wire Wire Line
	5950 2100 5700 2100
Wire Wire Line
	5700 2100 5700 2800
Wire Wire Line
	5700 2800 6500 2800
Wire Wire Line
	6500 1500 6500 2800
Wire Wire Line
	5950 2500 5950 2700
Wire Wire Line
	5950 2700 6750 2700
Wire Wire Line
	6750 1500 6750 2700
$Comp
L Connector:Conn_01x08_Female T10
U 1 1 5D48EA7D
P 10400 4500
F 0 "T10" H 10428 4476 50  0000 L CNN
F 1 "KL2794" H 10428 4385 50  0000 L CNN
F 2 "" H 10400 4500 50  0001 C CNN
F 3 "~" H 10400 4500 50  0001 C CNN
	1    10400 4500
	1    0    0    -1  
$EndComp
Wire Wire Line
	8750 2750 9350 2750
Wire Wire Line
	8400 2950 9450 2950
Wire Wire Line
	9350 2750 9350 2500
Wire Wire Line
	9350 2500 9900 2500
$Comp
L Device:R R0
U 1 1 5D5704F5
P 10250 2900
AR Path="/5D5704F5" Ref="R0"  Part="1" 
AR Path="/5D33320F/5D5704F5" Ref="R?"  Part="1" 
F 0 "R0" H 10320 2946 50  0000 L CNN
F 1 "0" H 10320 2855 50  0000 L CNN
F 2 "" V 10180 2900 50  0001 C CNN
F 3 "~" H 10250 2900 50  0001 C CNN
	1    10250 2900
	0    1    1    0   
$EndComp
Wire Wire Line
	9650 2200 9650 2900
Wire Wire Line
	9650 2900 10100 2900
Wire Wire Line
	10400 2900 11000 2900
Wire Wire Line
	9550 2300 9550 1900
Wire Wire Line
	9550 1900 9450 1900
Wire Wire Line
	9450 1900 9450 1700
Wire Wire Line
	9450 1200 10350 1200
Wire Wire Line
	10200 4400 10100 4400
Wire Wire Line
	10100 4400 10100 5200
Wire Wire Line
	10100 5200 11250 5200
Wire Wire Line
	11250 5200 11250 4300
Wire Wire Line
	11250 4300 11450 4300
Wire Wire Line
	10200 4200 10100 4200
Wire Wire Line
	10100 4200 10100 4000
Wire Wire Line
	10100 4000 10750 4000
Wire Wire Line
	10750 4000 10750 4300
Wire Wire Line
	10750 4300 10800 4300
Wire Wire Line
	10200 4600 10150 4600
Wire Wire Line
	10150 4600 10150 4700
Wire Wire Line
	10150 4950 10700 4950
Wire Wire Line
	10700 4950 10700 4700
Wire Wire Line
	10700 4700 10800 4700
$Comp
L Device:R R4
U 1 1 5D639F69
P 9800 3700
AR Path="/5D639F69" Ref="R4"  Part="1" 
AR Path="/5D33320F/5D639F69" Ref="R?"  Part="1" 
F 0 "R4" H 9870 3746 50  0000 L CNN
F 1 "2k2" H 9870 3655 50  0000 L CNN
F 2 "" V 9730 3700 50  0001 C CNN
F 3 "~" H 9800 3700 50  0001 C CNN
	1    9800 3700
	1    0    0    -1  
$EndComp
$Comp
L Device:R R5
U 1 1 5D63A753
P 10150 3700
AR Path="/5D63A753" Ref="R5"  Part="1" 
AR Path="/5D33320F/5D63A753" Ref="R?"  Part="1" 
F 0 "R5" H 10220 3746 50  0000 L CNN
F 1 "2k2" H 10220 3655 50  0000 L CNN
F 2 "" V 10080 3700 50  0001 C CNN
F 3 "~" H 10150 3700 50  0001 C CNN
	1    10150 3700
	1    0    0    -1  
$EndComp
Wire Wire Line
	9800 3850 9800 4050
Wire Wire Line
	9800 4050 10000 4050
Wire Wire Line
	10000 4050 10000 4300
Wire Wire Line
	10000 4300 10200 4300
Wire Wire Line
	10150 3850 9950 3850
Wire Wire Line
	9950 3850 9950 4700
Wire Wire Line
	9950 4700 10150 4700
Wire Wire Line
	9800 3550 9800 3450
Wire Wire Line
	9800 3450 10150 3450
Wire Wire Line
	10150 3450 10150 3550
Wire Wire Line
	10150 3450 10650 3450
Wire Wire Line
	10650 3450 10650 4400
Wire Wire Line
	10650 4400 10800 4400
Connection ~ 10150 3450
Wire Notes Line
	10200 4800 10050 4800
Wire Notes Line
	10050 4800 10050 4400
Wire Notes Line
	10050 4400 10200 4400
Wire Notes Line rgb(194, 0, 0)
	10200 4300 10150 4300
Wire Notes Line rgb(194, 0, 0)
	10150 4300 10150 4700
Wire Notes Line rgb(194, 0, 0)
	10150 4700 10200 4700
Connection ~ 10150 4700
Wire Wire Line
	10150 4700 10150 4950
$Comp
L Device:R Rt
U 1 1 5D678AF5
P 10250 5300
AR Path="/5D678AF5" Ref="Rt"  Part="1" 
AR Path="/5D33320F/5D678AF5" Ref="R?"  Part="1" 
F 0 "Rt" H 10320 5346 50  0000 L CNN
F 1 "1k" H 10320 5255 50  0000 L CNN
F 2 "" V 10180 5300 50  0001 C CNN
F 3 "~" H 10250 5300 50  0001 C CNN
	1    10250 5300
	0    1    1    0   
$EndComp
Wire Wire Line
	10200 4500 9850 4500
Wire Wire Line
	9850 4500 9850 5300
Wire Wire Line
	11300 5300 11300 4400
Wire Wire Line
	11300 4400 11450 4400
Wire Wire Line
	10100 5300 9850 5300
Wire Wire Line
	10400 5300 11300 5300
$EndSCHEMATC
